module bitbucket.org/nusatalent_dev/outsource-api

go 1.15

require (
	github.com/alecthomas/template v0.0.0-20190718012654-fb15b899a751
	github.com/aws/aws-sdk-go v1.35.21
	github.com/cosmtrek/air v1.12.5-0.20200905080724-b538c70423fb
	github.com/cpuguy83/go-md2man/v2 v2.0.0 // indirect
	github.com/dgrijalva/jwt-go v3.2.0+incompatible
	github.com/fatih/color v1.9.0 // indirect
	github.com/go-chi/chi v4.1.2+incompatible
	github.com/go-chi/cors v1.1.1
	github.com/go-playground/validator/v10 v10.4.0
	github.com/go-sql-driver/mysql v1.5.0
	github.com/gofrs/uuid v3.3.0+incompatible
	github.com/golang/mock v1.4.4
	github.com/google/wire v0.5.0
	github.com/guregu/null v4.0.0+incompatible
	github.com/jmoiron/sqlx v1.2.1-0.20190826204134-d7d95172beb5
	github.com/kr/text v0.2.0 // indirect
	github.com/mattn/go-colorable v0.1.7 // indirect
	github.com/niemeyer/pretty v0.0.0-20200227124842-a10e7caefd8e // indirect
	github.com/pkg/errors v0.9.1
	github.com/rs/zerolog v1.20.0
	github.com/spf13/pflag v1.0.5 // indirect
	github.com/spf13/viper v1.7.1
	github.com/stretchr/testify v1.6.1
	github.com/swaggo/http-swagger v0.0.0-20200308142732-58ac5e232fba
	github.com/swaggo/swag v1.6.7
	golang.org/x/crypto v0.0.0-20200622213623-75b288015ac9
	golang.org/x/tools v0.0.0-20200812195022-5ae4c3c160a0 // indirect
	golang.org/x/xerrors v0.0.0-20200804184101-5ec99f83aff1 // indirect
	gopkg.in/check.v1 v1.0.0-20200227125254-8fa46927fb4f // indirect
	gopkg.in/yaml.v2 v2.3.0 // indirect
)
